@startuml class
abstract class bank <<interface>>
{

}
note left of bank : In java, every class\nextends this one.

note as N1
This note is <u>also</u>
<b><color:royalBlue>on several  </color>
 <color:#CCAAAA><s>words</s><color:#BBAA11> lines
<i>And this is hosted by <img:sourceforge.jpg>
<size:19> myName
end note

note "This note is connected\nto several objects." as N2

Object .. N2
N2 .. ArrayList

class bankAccount
{
    - owner : string
    __ private data __
    int age
    -- encrypted --
    - password : string
    + balance : dollar
    ..
    {static} number : int
    --
    deposit (amount : dollar)
    \~ bankAccount()
}
class checkingAccount
{
    # flightNumber : Integer
    departureTime : Date
}
hide members
class savingAccount
{
    number : Integer
    time : Date
    getTime()
}
class A {
{static} int counter
+void {abstract} start(int timeout)
}
C --> D #red : thisLink
note on link #blue : this Is blue note
note right of A::counter
This member is annotated
end note
note right of A::start
This method is now explained in a UML note
end note

@enduml