@startmindmap MindmapDiagram
* Tkinter Layout Managers
** Pack
*** Options
**** side
**** fill
**** expand
**** padx
**** pady
**** ipadx
**** ipady
*** Relative
**** Frame

** Grid
*** Options
**** row
**** column
**** rowspan
**** columnspan
**** sticky
**** padx
**** pady
**** ipadx
**** ipady
**** in_
*** Relative
**** columnconfigure
**** rowconfigure

** Widgets
*** Frame
**** Config
***** bg
***** bd
***** cursor
***** height
***** width
***** relief
***** takefocus
***** highlightbackground
***** highlightcolor
***** highlightthickness

*** Label
*** Text



@endmindmap